{
  "packageDirectories": [
    {
      "path": "force-app",
      "default": true
    }
  ],
  "name": "picSF",
  "namespace": "",
  "sfdcLoginUrl": "https://login.salesforce.com",
  "sourceApiVersion": "52.0"
}
